{
    "Webpack": {
        "url": "https://webpack.js.org/",
        "key": "webpack"
    },
    "Fuse box": {
        "url": "https://fuse-box.org/",
        "key": "fuse-box"
    },
    "Browserify": {
        "url": "http://browserify.org/",
        "key": "browserify"
    },
    "Parcel": {
        "url": "https://parceljs.org/",
        "key": "parcel-bundler"
    },
    "Brunch": {
        "url": "https://brunch.io/",
        "key": "brunch"
    },
    "Steal": {
        "url": "https://stealjs.com/",
        "key": ["steal", "steal-tools"]
    },
    "RequireJS": {
        "url": "http://requirejs.org/",
        "key": "requirejs"
    },
    "JSPM": {
        "url": "https://jspm.io/",
        "key": "jspm"
    },
    "Rollup": {
        "url": "https://rollupjs.org/",
        "key": "rollup"
    },
    "Bit bundler": {
        "url": "https://bundler.bitjs.io/",
        "key": "bit-bundler"
    }
}