{
    "Karma": {
        "url": "https://karma-runner.github.io/2.0/index.html",
        "key": "karma"
    },
    "Chai": {
        "url": "http://www.chaijs.com/",
        "key": "chai"
    },
    "Unexpected": {
        "url": "https://unexpected.js.org/",
        "key": "unexpected"
    },
    "Sinon": {
        "url": "http://sinonjs.org/",
        "key": "sinon"
    },
    "Istanbul": {
        "url": "https://github.com/gotwarlost/istanbul",
        "key": "nyc"
    },
    "TestDouble": {
        "url": "https://github.com/testdouble/testdouble.js/",
        "key": "testdouble"
    },
    "Cucumber": {
        "url": "https://cucumber.io/",
        "key": "cucumber"
    },
    "Mocha": {
        "url": "https://mochajs.org/",
        "key": "mocha"
    },
    "Jest": {
        "url": "https://facebook.github.io/jest/",
        "key": "jest"
    },
    "Jasmine": {
        "url": "https://jasmine.github.io/",
        "key": "jasmine"
    },
    "Ava": {
        "url": "https://github.com/avajs/ava",
        "key": "ava"
    },
    "Tape": {
        "url": "https://github.com/substack/tape",
        "key": "tape"
    },
    "Selenium": {
        "url": "https://www.seleniumhq.org/",
        "key": "selenium-webdriver"
    },
    "Appium": {
        "url": "http://appium.io/",
        "key": "appium"
    },
    "Protractor": {
        "url": "https://www.protractortest.org/#/",
        "key": "protractor"
    },
    "Nightwatch": {
        "url": "http://nightwatchjs.org/",
        "key": "nightwatch"
    },
    "WebdriverIO": {
        "url": "http://webdriver.io/",
        "key": "webdriverio"
    },
    "Testcafe": {
        "url": "https://devexpress.github.io/testcafe/",
        "key": "testcafe"
    },
    "Cypress": {
        "url": "https://www.cypress.io/",
        "key": "cypress"
    },
    "Puppeteer": {
        "url": "https://github.com/GoogleChrome/puppeteer",
        "key": "puppeteer"
    },
    "PhantomJS": {
        "url": "http://phantomjs.org/",
        "key": "phantomjs-prebuilt"
    },
    "Nightmare": {
        "url": "http://www.nightmarejs.org/",
        "key": "nightmare"
    },
    "CasperJS": {
        "url": "http://casperjs.org/",
        "key": "casperjs"
    },
    "CodeceptJS": {
        "url": "https://codecept.io/",
        "key": "codeceptjs"
    }
}