{
    "JsDelivr": {
        "url": "https://www.jsdelivr.com/",
        "key": "cdn.jsdelivr.net"
    },
    "CDNjs": {
        "url": "https://cdnjs.com/",
        "key": "cdnjs.cloudflare.com"
    },
    "YandexCDN": {
        "url": "https://tech.yandex.ru/jslibs/",
        "key": "yastatic.net"
    },
    "BootstrapCDN": {
        "url": "https://www.bootstrapcdn.com/",
        "key": "stackpath.bootstrapcdn.com"
    },
    "MicrosoftCDN": {
        "url": "https://docs.microsoft.com/en-us/aspnet/ajax/cdn/overview",
        "key": "ajax.aspnetcdn.com"
    },
    "JqueryCDN": {
        "url": "http://code.jquery.com/",
        "key": "code.jquery.com"
    },
    "GoogleCDN": {
        "url": "https://developers.google.com/speed/libraries/",
        "key": "ajax.googleapis.com"
    },
    "Unpkg": {
        "url": "https://unpkg.com/",
        "key": "unpkg.com"
    },
    "Packd": {
        "url": "https://bundle.run/",
        "key": "bundle.run"
    }
}